<?xml version="1.0" encoding="UTF-8"?>
<svg width="35px" height="112px" viewBox="0 0 35 112" version="1.1" xmlns="http://www.w3.org/2000/svg" xmlns:xlink="http://www.w3.org/1999/xlink">
    <!-- Generator: Sketch 51.2 (57519) - http://www.bohemiancoding.com/sketch -->
    <title>ufør-mann</title>
    <desc>Created with Sketch.</desc>
    <defs></defs>
    <g stroke="none" stroke-width="1" fill="none" fill-rule="evenodd">
        <g transform="translate(-171.000000, -443.000000)" fill-rule="nonzero">
            <g transform="translate(171.000000, 443.000000)">
                <path d="M6.21,106 C6.0300006,107.168037 6.55253151,108.332917 7.54458862,108.975204 C8.53664573,109.617491 9.81335427,109.617491 10.8054114,108.975204 C11.7974685,108.332917 12.3199994,107.168037 12.14,106 L12.14,68.16 L6.21,68.16 L6.21,106 Z" fill="#AC9D8C"></path>
                <path d="M15.14,68.16 L15.14,106 C15.3506641,107.478425 16.6166415,108.576798 18.11,108.576798 C19.6033585,108.576798 20.8693359,107.478425 21.08,106 L21.08,68.16 L15.14,68.16 Z" fill="#AC9D8C"></path>
                <path d="M8,57.67 C7.40272672,57.6679059 6.81162984,57.5490071 6.26,57.32 L6.26,65.16 L21.08,65.16 L21.08,57.66 L8,57.67 Z" fill="#B0DFDB"></path>
                <polygon fill="#B0DFDB" points="21.08 41.47 19.67 45.64 21.08 45.64"></polygon>
                <path d="M6.21,45 L18.35,29 C16.1347091,27.1736592 13.0646036,26.7892269 10.4673893,28.0129556 C7.87017494,29.2366842 6.21201436,31.8489322 6.21,34.72 L6.21,45 Z" fill="#B0DFDB"></path>
                <path d="M22.51,51.66 C22.5130348,51.3786778 22.5364293,51.0979442 22.58,50.82 C22.6884422,50.0520942 22.9430332,49.3120831 23.33,48.64 L18.66,48.64 L16.66,54.64 L23.37,54.64 C22.9826456,53.9716887 22.727984,53.2348679 22.62,52.47 C22.5643615,52.2029175 22.5276039,51.9322477 22.51,51.66 Z" fill="#B0DFDB"></path>
                <path d="M20.79,32.7 C20.73,32.5 20.67,32.3 20.6,32.12 L20.6,32.04 C20.51,31.81 20.41,31.59 20.31,31.39 L6.21,49.9 L6.21,52.17 C6.15325231,52.8346635 6.38914941,53.4910323 6.8560197,53.9675089 C7.32288998,54.4439856 7.97431869,54.6932004 8.64,54.65 L13.46,54.65 L20.83,32.83 C20.83,32.83 20.8,32.74 20.79,32.7 Z" fill="#FFFFFF"></path>
                <path d="M13.64,3 C7.76369026,3 3,7.76369026 3,13.64 C3,19.5163097 7.76369026,24.28 13.64,24.28 C19.5163097,24.28 24.28,19.5163097 24.28,13.64 C24.2744871,7.76597531 19.5140247,3.00551293 13.64,3 Z" fill="#E6D1B8"></path>
                <path d="M28.53,48.64 L28.32,48.64 C26.6631458,48.5875329 25.2774671,49.8881458 25.225,51.545 C25.1725329,53.2018542 26.4731458,54.5875329 28.13,54.64 C28.2631324,54.6503515 28.3968676,54.6503515 28.53,54.64 C30.1868542,54.64 31.53,53.2968542 31.53,51.64 C31.53,49.9831458 30.1868542,48.64 28.53,48.64 Z" fill="#E6D1B8"></path>
                <path d="M28.53,45.64 L24.08,45.64 L24.08,34.72 C24.0781475,34.0077331 24.0044409,33.29747 23.86,32.6 C23.86,32.53 23.86,32.47 23.81,32.4 C23.74,32.09 23.65,31.78 23.55,31.48 L23.55,31.41 C23.3040985,30.6368156 22.9684784,29.8950953 22.55,29.2 C22.45,29.03 22.35,28.89 22.25,28.75 C22.0343508,28.4308388 21.7971308,28.1267964 21.54,27.84 L21.45,27.76 C20.8554918,27.1077433 20.1838994,26.5301738 19.45,26.04 C25.2534979,23.3550885 28.4127875,16.998933 27.0490213,10.7515752 C25.6852551,4.50421746 20.1645576,0.0428586546 13.7701189,0.0206942224 C7.37568022,-0.0014702098 1.82418777,4.42151012 0.41714564,10.6592637 C-0.989896492,16.8970173 2.12525423,23.2749213 7.91,26 C5.14440111,27.8287116 3.40841068,30.8592761 3.23,34.17 C3.22503705,34.2599316 3.22503705,34.3500684 3.23,34.44 L3.23,34.72 L3.23,106 C3.24909216,108.467715 4.7771931,110.672065 7.08134583,111.555728 C9.38549856,112.439392 11.9957154,111.822125 13.66,110 C15.3229512,111.82967 17.9379803,112.45191 20.2467854,111.56731 C22.5555905,110.68271 24.0853607,108.472425 24.1,106 L24.1,57.67 L28.55,57.67 C31.8637085,57.67 34.55,54.9837085 34.55,51.67 C34.55,48.3562915 31.8637085,45.67 28.55,45.67 L28.53,45.64 Z M21.08,106 C20.8693359,107.478425 19.6033585,108.576798 18.11,108.576798 C16.6166415,108.576798 15.3506641,107.478425 15.14,106 L15.14,68.16 L21.08,68.16 L21.08,106 Z M12.14,106 C12.3199994,107.168037 11.7974685,108.332917 10.8054114,108.975204 C9.81335427,109.617491 8.53664573,109.617491 7.54458862,108.975204 C6.55253151,108.332917 6.0300006,107.168037 6.21,106 L6.21,68.16 L12.14,68.16 L12.14,106 Z M24.28,13.64 C24.28,19.5163097 19.5163097,24.28 13.64,24.28 C7.76369026,24.28 3,19.5163097 3,13.64 C3,7.76369026 7.76369026,3 13.64,3 C19.5140247,3.00551293 24.2744871,7.76597531 24.28,13.64 Z M25.51,51.64 C25.5068174,50.0545956 26.737775,48.740406 28.32,48.64 L28.53,48.64 C30.1868542,48.64 31.53,49.9831458 31.53,51.64 C31.53,53.2968542 30.1868542,54.64 28.53,54.64 C28.3968676,54.6503515 28.2631324,54.6503515 28.13,54.64 C26.6306495,54.4485416 25.5079022,53.1715237 25.51,51.66 L25.51,51.64 Z M20.6,32.12 C20.67,32.3 20.73,32.5 20.79,32.7 C20.79,32.7 20.79,32.78 20.79,32.82 L13.46,54.66 C13.46,54.66 8.7,54.66 8.64,54.66 C7.97431869,54.7032004 7.32288998,54.4539856 6.8560197,53.9775089 C6.38914941,53.5010323 6.15325231,52.8446635 6.21,52.18 L6.21,49.9 C6.93,49 18.87,33.24 20.27,31.41 C20.37,31.62 20.49,31.82 20.57,32.04 L20.6,32.12 Z M21.08,45.64 L19.67,45.64 L21.08,41.47 L21.08,45.64 Z M6.21,45 L6.21,34.72 C6.21201436,31.8489322 7.87017494,29.2366842 10.4673893,28.0129556 C13.0646036,26.7892269 16.1347091,27.1736592 18.35,29 L6.21,45 Z M21.08,65.16 L6.21,65.16 L6.21,57.32 C6.77716738,57.5554938 7.3859025,57.6745202 8,57.67 L21.08,57.67 L21.08,65.16 Z M16.62,54.66 L18.62,48.66 L23.29,48.66 C22.9030332,49.3320831 22.6484422,50.0720942 22.54,50.84 C22.4463793,51.3927304 22.4463793,51.9572696 22.54,52.51 C22.647984,53.2748679 22.9026456,54.0116887 23.29,54.68 L16.62,54.66 Z" fill="#404040"></path>
            </g>
        </g>
    </g>
</svg>